Câu3/hinhsin_rom/.Xil/Vivado-18112-LAPTOP-LSGDK3TB/hw_ila_data_1/zip_work/waveform.vcd
$date
        2024-May-26 23:10:37
$end
$version
        Vivado v2017.4 (64-bit)
$end
$timescale
        1ps
$end
$scope module dut $end
$var reg 8 " sin_out_OBUF [7:0] $end
$var reg 1 * _TRIGGER $end
$var reg 1 + _WINDOW $end
$var reg 1 , _GAP $end
$upscope $end
$enddefinitions $end
#0
$dumpvars
b10011010 "
0*
1+
0,
$end
#4
b10010111 "
#25
b10010000 "
#46
b10000111 "
#67
b1111010 "
#88
b1101100 "
#109
b1011101 "
#130
b1001101 "
#151
b111101 "
#172
b101110 "
#193
b100000 "
#214
b10011 "
#235
b1010 "
#256
b11 "
#277
b0 "
#319
b11 "
#340
b1010 "
#361
b10011 "
#382
b100000 "
#403
b101110 "
#424
b111101 "
#445
b1001101 "
#466
b1011101 "
#487
b1101100 "
#508
b1111010 "
#512
1*
#529
b10000111 "
#550
b10010000 "
#571
b10010111 "
#592
b10011010 "
#634
b10010111 "
#655
b10010000 "
#676
b10000111 "
#697
b1111010 "
#718
b1101100 "
#739
b1011101 "
#760
b1001101 "
#781
b111101 "
#802
b101110 "
#823
b100000 "
#844
b10011 "
#865
b1010 "
#886
b11 "
#907
b0 "
#949
b11 "
#970
b1010 "
#991
b10011 "
#1012
b100000 "
